Counting Patent First Filings the Tidy Way with R - Paul Oldham's Blog
…
The drones dataset consists of 18,970 patent publications that contain the words drone or drones somewhere in the text. The dataset is based on a search of the full text patent collections of the United States, the European Patent Office (covering members of the European Patent Convention), the Japan Patent Office, and the Patent Cooperation Treaty (WO) administered by the World Intellectual Property Organisation. The data is based on a search of the commercial Clarivate Analytics Derwent Innovations database which makes it easy to search and download full text data at scales up to 60,000 records at a time.

We will be working with the drones numbers set that is confined to just patent numbers in their raw form as downloaded from Derwent Innovation. You can download the dataset here or import it directly by running the following in your RStudio console.

library(tidyverse)
numbers <- read_csv("https://github.com/wipo-analytics/drones_data/blob/master/numbers.csv?raw=true")

The priority number

In the table below we can see that we have a dataset consisting of five columns starting with the priority number.

numbers

## # A tibble: 18,970 x 5
##    priority_number                                                                                                                                                                        application_number  family_first family_number publication_num…
##    <chr>                                                                                                                                                                                  <chr>               <chr>        <chr>         <chr>           
##  1 US2016578323F 2016-09-20                                                                                                                                                               US2016578323F 2016… <NA>         <NA>          USD801224S1     
##  2 US14954632A 2015-11-30                                                                                                                                                                 US14954632A 2015-1… <NA>         <NA>          US9807866B2     
##  3 US15360203A 2016-11-23                                                                                                                                                                 US15360203A 2016-1… <NA>         <NA>          US9807726B1     
##  4 US62203383P 2015-08-10; US62314047P 2016-03-28                                                                                                                                         US15454805A 2017-0… <NA>         <NA>          US9807625B2     
##  5 US62200764P 2015-08-04; US62314042P 2016-03-28                                                                                                                                         US15263985A 2016-0… <NA>         <NA>          US9807619B2     
##  6 KR201528901A 2015-03-02                                                                                                                                                                US15057264A 2016-0… <NA>         <NA>          US9807364B2     
##  7 US15217944A 2016-07-22; US2015196885P 2015-07-24; US62196885P 2015-07-24                                                                                                               US15217944A 2016-0… <NA>         <NA>          US9806846B2     
##  8 US2008100721P 2008-09-27; US2008108743P 2008-10-27; US2008121159P 2008-12-09; US2009142796P 2009-01-06; US2009142818P 2009-01-06; US2009142880P 2009-01-06; US2009142885P 2009-01-06;… US14808174A 2015-0… <NA>         <NA>          US9806541B2     
##  9 FR20142036A 2014-09-12                                                                                                                                                                 US14848061A 2015-0… <NA>         <NA>          US9805606B2     
## 10 US14970643A 2015-12-16                                                                                                                                                                 US14970643A 2015-1… <NA>         <NA>          US9805598B2     
## # ... with 18,960 more rows
…
## [1] 15776

This reduces our original 18,970 records to 15,776 records. We now want to take a look at our data to check for missingness.

Missing Data

We will be counting and graphing the priority numbers. So we will want to check that all of our records have a priority number. We will also be using dates to graph the data and it will be a very good idea to check the dates at this stage. The reason for this is that strange things can happen with patent dates and this is often linked to missingness in the data as we will see in a moment.

In R missing data is represented by NA for Not Available. Working with NA data can be awkward and a source of considerable frustration because NA is not a value, it is the absence of a value. We can solve this by adding a column using mutate() that will test the priority number field for NA values is.na(). We will then apply a filter to allow us to see the top results where the value for is.na() is TRUE. To see all the data add %>% View() to the end.

numbers_unique %>% 
  mutate(missing_priority = is.na(priority_number)) %>% 
  filter(missing_priority == "TRUE")

## # A tibble: 96 x 4
##    priority_number application_number    publication_number missing_priority
##    <chr>           <chr>                 <chr>              <lgl>           
##  1 <NA>            USD502486A 0001-01-01 US502486A          TRUE            
##  2 <NA>            USD500197A 0001-01-01 US500197A          TRUE            
##  3 <NA>            USD499490A 0001-01-01 US499490A          TRUE            
##  4 <NA>            USD497518A 0001-01-01 US497518A          TRUE            
##  5 <NA>            USD565353A 0001-01-01 US565353A          TRUE            
##  6 <NA>            USD474115A 0001-01-01 US474115A          TRUE            
##  7 <NA>            USD459287A 0001-01-01 US459287A          TRUE            
##  8 <NA>            USD540479A 0001-01-01 US540479A          TRUE            
##  9 <NA>            USD522772A 0001-01-01 US522772A          TRUE            
## 10 <NA>            USD593712A 0001-01-01 US593712A          TRUE            
## # ... with 86 more rows
…
numbers_unique

## # A tibble: 68,361 x 7
##    priority_number          priority_date application_number       provisional     n priority_country application_country
##    <chr>                    <date>        <chr>                    <lgl>       <int> <chr>            <chr>              
##  1 US2016578323F 2016-09-20 2016-09-20    US2016578323F 2016-09-20 FALSE           1 US               US                 
##  2 US14954632A 2015-11-30   2015-11-30    US14954632A 2015-11-30   FALSE           1 US               US                 
##  3 US15360203A 2016-11-23   2016-11-23    US15360203A 2016-11-23   FALSE           1 US               US                 
##  4 US62203383P 2015-08-10   2015-08-10    US15454805A 2017-03-09   TRUE            2 US               US                 
##  5 US62314047P 2016-03-28   2016-03-28    US15454805A 2017-03-09   TRUE            2 US               US                 
##  6 US62200764P 2015-08-04   2015-08-04    US15263985A 2016-09-13   TRUE            2 US               US                 
##  7 US62314042P 2016-03-28   2016-03-28    US15263985A 2016-09-13   TRUE            2 US               US                 
##  8 KR201528901A 2015-03-02  2015-03-02    US15057264A 2016-03-01   FALSE           1 KR               US                 
##  9 US15217944A 2016-07-22   2016-07-22    US15217944A 2016-07-22   FALSE           3 US               US                 
## 10 US2015196885P 2015-07-24 2015-07-24    US15217944A 2016-07-22   TRUE            3 US               US                 
## # ... with 68,351 more rows
…
When preparing data in this way one of the signs that there are unresolved issues with your data is that you will receive warnings about missing or extra pieces of data when you use separate(). If you see these messages go back and inspect your data. It can mean that there are NA values in the column you are separating or it can mean that you have extra spaces (so there will be too many pieces) or something else is present in the data. Issues with white space are common culprits with patent data (following separation) and this is one of the reasons that there are two calls to trim white space with str_trim() as a security blanket to avoid later problems.

To make this clearer lets just try and run separate on our original concatenated data using the space as the separator.

numbers %>% 
  separate(priority_number, into = c("one", "two"), sep = " ")

## Warning: Expected 2 pieces. Additional pieces discarded in 10937 rows [4, 5, 7, 8, 11, 21, 22, 32, 33, 34, 37, 39, 40, 41, 42, 43, 44, 45, 48, 49, ...].

## # A tibble: 18,970 x 6
##    one           two         application_number       family_first family_number publication_number
##    <chr>         <chr>       <chr>                    <chr>        <chr>         <chr>             
##  1 US2016578323F 2016-09-20  US2016578323F 2016-09-20 <NA>         <NA>          USD801224S1       
##  2 US14954632A   2015-11-30  US14954632A 2015-11-30   <NA>         <NA>          US9807866B2       
##  3 US15360203A   2016-11-23  US15360203A 2016-11-23   <NA>         <NA>          US9807726B1       
##  4 US62203383P   2015-08-10; US15454805A 2017-03-09   <NA>         <NA>          US9807625B2       
##  5 US62200764P   2015-08-04; US15263985A 2016-09-13   <NA>         <NA>          US9807619B2       
##  6 KR201528901A  2015-03-02  US15057264A 2016-03-01   <NA>         <NA>          US9807364B2       
##  7 US15217944A   2016-07-22; US15217944A 2016-07-22   <NA>         <NA>          US9806846B2       
##  8 US2008100721P 2008-09-27; US14808174A 2015-07-24   <NA>         <NA>          US9806541B2       
##  9 FR20142036A   2014-09-12  US14848061A 2015-09-08   <NA>         <NA>          US9805606B2       
## 10 US14970643A   2015-12-16  US14970643A 2015-12-16   <NA>         <NA>          US9805598B2       
## # ... with 18,960 more rows

We immediately get a warning about extra pieces in over 10,000 rows signifying that we need to go back and pay more attention to our data. In other cases you will not always be concerned about this, although it is an extremely good idea to be clear about why you are not concerned, and you can deal with extra data by specifying extra = "merge". For fun let’s try that.

numbers %>% 
  separate(priority_number, into = c("one", "two"), sep = " ", extra = "merge") %>% 
  select(one, two)

## # A tibble: 18,970 x 2
##    one           two                                                                                                                                                                                                                                     
##    <chr>         <chr>                                                                                                                                                                                                                                   
##  1 US2016578323F 2016-09-20                                                                                                                                                                                                                              
##  2 US14954632A   2015-11-30                                                                                                                                                                                                                              
##  3 US15360203A   2016-11-23                                                                                                                                                                                                                              
##  4 US62203383P   2015-08-10; US62314047P 2016-03-28                                                                                                                                                                                                      
##  5 US62200764P   2015-08-04; US62314042P 2016-03-28                                                                                                                                                                                                      
##  6 KR201528901A  2015-03-02                                                                                                                                                                                                                              
##  7 US15217944A   2016-07-22; US2015196885P 2015-07-24; US62196885P 2015-07-24                                                                                                                                                                            
##  8 US2008100721P 2008-09-27; US2008108743P 2008-10-27; US2008121159P 2008-12-09; US2009142796P 2009-01-06; US2009142818P 2009-01-06; US2009142880P 2009-01-06; US2009142885P 2009-01-06; US2009142887P 2009-01-06; US2009142889P 2009-01-06; US200914297…
##  9 FR20142036A   2014-09-12                                                                                                                                                                                                                              
## 10 US14970643A   2015-12-16                                                                                                                                                                                                                              
## # ... with 18,960 more rows
…
Identify the earliest priority document

Identify the priority that is closest to the specific invention

Here we will focus on simply identifying the earliest priority. We can do this in a straight forward way by grouping our application numbers and then using the rank() function inside a call to mutate() to rank the dates from 1 to x. A key point here is that the default ranking method for the rank function is actually average. We therefore need to specify ties.method = "first" to get what we want. We then ungroup our table and filter to the earliest priority date using filing_order == 1.

earliest <- numbers_unique %>% 
  group_by(application_number) %>% 
  mutate(filing_order = rank(priority_date, ties.method = "first")) %>%
  ungroup() %>% 
  filter(filing_order == 1)

earliest

## # A tibble: 15,680 x 8
##    priority_number          priority_date application_number       provisional     n priority_country application_country filing_order
##    <chr>                    <date>        <chr>                    <lgl>       <int> <chr>            <chr>                      <int>
##  1 US2016578323F 2016-09-20 2016-09-20    US2016578323F 2016-09-20 FALSE           1 US               US                             1
##  2 US14954632A 2015-11-30   2015-11-30    US14954632A 2015-11-30   FALSE           1 US               US                             1
##  3 US15360203A 2016-11-23   2016-11-23    US15360203A 2016-11-23   FALSE           1 US               US                             1
##  4 US62203383P 2015-08-10   2015-08-10    US15454805A 2017-03-09   TRUE            2 US               US                             1
##  5 US62200764P 2015-08-04   2015-08-04    US15263985A 2016-09-13   TRUE            2 US               US                             1
##  6 KR201528901A 2015-03-02  2015-03-02    US15057264A 2016-03-01   FALSE           1 KR               US                             1
##  7 US2015196885P 2015-07-24 2015-07-24    US15217944A 2016-07-22   TRUE            3 US               US                             1
##  8 US2008100721P 2008-09-27 2008-09-27    US14808174A 2015-07-24   TRUE           22 US               US                             1
##  9 FR20142036A 2014-09-12   2014-09-12    US14848061A 2015-09-08   FALSE           1 FR               US                             1
## 10 US14970643A 2015-12-16   2015-12-16    US14970643A 2015-12-16   FALSE           1 US               US                             1
## # ... with 15,670 more rows
…
Note here that the United States emerges first in the top 5 followed by Japan, France, Korea and the Patent Cooperation Treaty (WO). It is important to bear in mind here that WO records will typically be filed through national offices, although no priority number will be present, as we can see in the references to country codes inside the WO priority documents.

earliest_unique %>% 
  filter(priority_country == "WO") %>% 
  select(priority_number)

## # A tibble: 286 x 1
##    priority_number          
##    <chr>                    
##  1 WO2016US65141A 2016-12-06
##  2 WO2015CN79094A 2015-05-15
##  3 WO2014CN86739A 2014-09-17
##  4 WO2015EP76803A 2015-11-17
##  5 WO2014EP72175A 2014-10-16
##  6 WO2013US65291A 2013-10-16
##  7 WO2014PL50044A 2014-07-24
##  8 WO2014US21626A 2014-03-07
##  9 WO2013US46840A 2013-06-20
## 10 WO2012US69292A 2012-12-12
## # ... with 276 more rows

We can summarise this data by extracting the country codes in the middle of the WO numbers. This suggests that the country where the WO application was submitted was the US followed by China (CN) and so on. The reference to the IB in these numbers are for so called PCT direct filings that are filed directly with WIPO as the International Bureau (IB) for the Patent Cooperation Treaty.

earliest_unique %>% 
  filter(priority_country == "WO") %>% 
  select(priority_number) %>% 
  mutate(wo_source = str_sub(.$priority_number, 7,8)) %>% 
  count(wo_source, sort = TRUE)

## # A tibble: 25 x 2
##    wo_source     n
##    <chr>     <int>
##  1 US           71
##  2 CN           46
##  3 EP           43
##  4 JP           43
##  5 IB           19
##  6 KR           14
##  7 SE           13
##  8 RU            7
##  9 FR            5
## 10 PL            5
## # ... with 15 more rows
…
This function takes three arguments. Data is a dataset, the priority number is the field that contains the raw priority number data and the key is the field that is used for grouping (assumed to be the application number).

We can test this as follows:

results <- extract_priority(data = numbers, priority_number = "priority_number", key = "application_number")
results

## # A tibble: 9,366 x 4
##    priority_number          priority_date application_number       priority_country
##    <chr>                    <date>        <chr>                    <chr>           
##  1 US2016578323F 2016-09-20 2016-09-20    US2016578323F 2016-09-20 US              
##  2 US14954632A 2015-11-30   2015-11-30    US14954632A 2015-11-30   US              
##  3 US15360203A 2016-11-23   2016-11-23    US15360203A 2016-11-23   US              
##  4 US62203383P 2015-08-10   2015-08-10    US15454805A 2017-03-09   US              
##  5 US62200764P 2015-08-04   2015-08-04    US15263985A 2016-09-13   US              
##  6 KR201528901A 2015-03-02  2015-03-02    US15057264A 2016-03-01   KR              
##  7 US2015196885P 2015-07-24 2015-07-24    US15217944A 2016-07-22   US              
##  8 US2008100721P 2008-09-27 2008-09-27    US14808174A 2015-07-24   US              
##  9 FR20142036A 2014-09-12   2014-09-12    US14848061A 2015-09-08   FR              
## 10 US14970643A 2015-12-16   2015-12-16    US14970643A 2015-12-16   US              
## # ... with 9,356 more rows
…
