Geocoding in R with the Placement Package - Paul Oldham's Blog
…
After a cup of tea or two the API returned results for 3,937 results out of 5,206 names (with one of our original 5,207 names missing). It doesn’t tell us anything about the quality of the geocoding. Experience suggests that in cases where only the name of an organisation is available the results can vary quite wildly and require extensive validation.

Let’s join the results onto the original table. Note that the return from Google includes an input_url column that contains the privatekey. This column has been dropped for this post.

results <- dplyr::left_join(affiliation_records, coordaffil, by = "locations")

We can identify the results found so far by filtering on the status field which will show “OK” where there is a return and “ZERO_RESULTS” where the geocoding did not work:

resultsfound <- results %>% filter(., status == "OK")
resultsfound

## # A tibble: 3,947 x 10
##    records locations     id   lat     lng location_type formatted_addre… status
##      <int> <chr>      <int> <dbl>   <dbl> <chr>         <chr>            <chr> 
##  1       1 AAHL, Vic…     1 -38.2  144.   ROOFTOP       5 Portarlington… OK    
##  2       1 AAHRI, Ba…     2  13.8  101.   GEOMETRIC_CE… 50, กรมประมง, ถ… OK    
##  3       1 Aarhus Un…     3  56.2   10.2  ROOFTOP       Nordre Ringgade… OK    
##  4       1 Aarhus Un…     4  56.2   10.2  ROOFTOP       Nørrebrogade 44… OK    
##  5      13 Aarhus Un…     5  56.2   10.2  ROOFTOP       Nordre Ringgade… OK    
##  6       3 Aarhus Un…     6  56.2   10.2  ROOFTOP       Nordre Ringgade… OK    
##  7       1 Abasyn Un…     7  34.0   71.6  GEOMETRIC_CE… Ring Road, Char… OK    
##  8       1 Abdul Wal…     8  34.2   72.0  GEOMETRIC_CE… Nowshera Mardan… OK    
##  9       1 Abertay U…     9  56.5   -2.97 ROOFTOP       Kydd Building, … OK    
## 10       1 Aberystwy…    10  52.4   -4.06 ROOFTOP       Penglais Campus… OK    
## # ... with 3,937 more rows, and 2 more variables: error_message <chr>,
## #   geocode_dt <date>
…
coordlookup %>% filter(., status == "OK") %>% nrow()

## [1] 249

When the results come back we have only picked up 249 of the 1259 we sent. That is rather disappointing and suggests that we will need another round. To start that process we need to join the data together again. To rejoin the data we need to bear in mind that we sent the locations_edited field but the return from the Google API calls it locations. To effect the join we need to rename that field in the return from Google and then join. To avoid duplication of columns we will drop the unwanted empty columns in lookup using dplyr::select. If you are not very familiar with dplyr yet note that naming the columns you want to keep in select() is safer than selecting by numeric position and also helps you to understand what you were intending when you come back to it later.

coordlookup <- coordlookup %>% rename(., locations_edited = locations)  # rename for join
lookup <- lookup %>% select(., records, locations, id, locations_edited)  # drop unwanted columns
lookupresults <- bind_cols(lookup, coordlookup) %>% select(., -locations_edited1)

So, let’s now take a look at which addresses have not been captured by our approach so far.

lookupresults %>% filter(., status != "OK") %>% arrange(desc(records))

## # A tibble: 1,010 x 11
##    records locations         id locations_edited        lat   lng location_type
##      <int> <chr>          <int> <chr>                 <dbl> <dbl> <chr>        
##  1      56 Natl Sci & Te…  2795 National Science & T…    NA    NA <NA>         
##  2      55 Chinese Acad …   606 Chinese Academy Scie…    NA    NA <NA>         
##  3      28 Sun Yat Sen U…  3728 Sun Yat Sen Universi…    NA    NA <NA>         
##  4      20 Natl Sci & Te…  2796 National Science & T…    NA    NA <NA>         
##  5      18 Japan Int Res…  1902 Japan International …    NA    NA <NA>         
##  6      17 Rajamangala U…  3263 Rajamangala Universi…    NA    NA <NA>         
##  7      14 Iranian Fishe…  1823 Iranian Fisheries Re…    NA    NA <NA>         
##  8      14 Korea Assoc H…  2069 Korea Association He…    NA    NA <NA>         
##  9      12 VAST, Haiphon…  4939 VAST, Haiphong, Viet…    NA    NA <NA>         
## 10       8 AMB Grp Micol…   123 AMB Group Micologico…    NA    NA <NA>         
## # ... with 1,000 more rows, and 4 more variables: formatted_address <chr>,
## #   status <chr>, error_message <chr>, geocode_dt <date>
…
In the original data we had 5,206 rows. How many of the entries had only one record?

affiliation_records %>% filter(., records > 1) %>% count()

## # A tibble: 1 x 1
##       n
##   <int>
## 1  1624

So, depending on our purposes we might want to filter out the long tail of small counts using a threshold. In this case we sought to resolve as far as possible because we want to assess whether the address field data is useful in cleaning up duplicate names. We will not deal with that question here but we will point the way by identifying the cases where there are duplicates of the addresses in the results.

results_complete %>% group_by(formatted_address) %>% count(., sort = TRUE)

## # A tibble: 3,059 x 2
## # Groups:   formatted_address [3,059]
##    formatted_address                                                          n
##    <chr>                                                                  <int>
##  1 <NA>                                                                    1010
##  2 Jalan Upm, 43400 Serdang, Selangor, Malaysia                              22
##  3 T145, 21300 Kuala Terengganu, Terengganu, Malaysia                        18
##  4 15 Karnjanavanit Soi 7 Rd, Kho Hong, Amphoe Hat Yai, Chang Wat Songkh…    14
##  5 113 Soi Klong Luang 17, Tambon Khlong Nung, Amphoe Khlong Luang, Chan…    13
##  6 Đình Bảng communal house, Tx. Từ Sơn, Bac Ninh Province, Vietnam          13
##  7 Pekan Bangi, 43600 Bangi, Selangor, Malaysia                              13
##  8 999 Phuttamonthon 4 Road, Salaya 73170, Thailand                          12
##  9 National Highway, Tigbauan, 5021 Iloilo, Philippines                      12
## 10 169 Longhadbamgsaen Road Tambon Saen Suk, Amphoe Mueang Chon Buri, Ch…    10
## # ... with 3,049 more rows

This data provides a clue that in a significant number of cases the organisation names can be merged. In the case of the top result the Universiti Putra Malaysia was previously the Agricultural University and also known as the Universiti Pertanian Malaysia. So, in this case we would be safe to merge the results.

results_complete %>% filter(., formatted_address == "Jalan Upm, 43400 Serdang, Selangor, Malaysia")

## # A tibble: 22 x 14
##    records locations      id   lat   lng location_type formatted_address status
##      <int> <chr>       <int> <dbl> <dbl> <chr>         <chr>             <chr> 
##  1       1 AGR UNIV M…    64  2.99  102. GEOMETRIC_CE… Jalan Upm, 43400… OK    
##  2       8 Univ Perta…  4558  2.99  102. GEOMETRIC_CE… Jalan Upm, 43400… OK    
##  3       1 Univ Perta…  4559  2.99  102. GEOMETRIC_CE… Jalan Upm, 43400… OK    
##  4       1 Univ Putra…  4615  2.99  102. GEOMETRIC_CE… Jalan Upm, 43400… OK    
##  5       1 Univ Putra…  4616  2.99  102. GEOMETRIC_CE… Jalan Upm, 43400… OK    
##  6       1 Univ Putra…  4618  2.99  102. GEOMETRIC_CE… Jalan Upm, 43400… OK    
##  7       1 Univ Putra…  4619  2.99  102. GEOMETRIC_CE… Jalan Upm, 43400… OK    
##  8       1 Univ Putra…  4620  2.99  102. GEOMETRIC_CE… Jalan Upm, 43400… OK    
##  9       1 Univ Putra…  4622  2.99  102. GEOMETRIC_CE… Jalan Upm, 43400… OK    
## 10       1 Univ Putra…  4623  2.99  102. GEOMETRIC_CE… Jalan Upm, 43400… OK    
## # ... with 12 more rows, and 6 more variables: error_message <chr>,
## #   geocode_dt <date>, locations_edited <chr>, name_city <chr>,
## #   name_country <chr>, name <chr>
…
Quickly Mapping the Data

To finish off lets quickly map the data using the popular leaflet package:

install.packages("leaflet")

library(leaflet)
mapdata <- results_complete %>% filter(., status == "OK")
mapdata <- leaflet(mapdata) %>% addTiles() %>% addCircleMarkers(~lng, ~lat, popup = .$locations, 
    radius = mapdata$records/20, weight = 0.1, opacity = 0.2, fill = TRUE, fillOpacity = 0.2)  # note that icon radius is a calculation to stop the dots showing up as huge.
mapdata

results_complete %>% group_by(formatted_address) %>% count()

## # A tibble: 3,059 x 2
## # Groups:   formatted_address [3,059]
##    formatted_address                                                          n
##    <chr>                                                                  <int>
##  1 # 83, Bannerghatta Road, Shivanahalli Village, Ragi Halli Post, Jigan…     1
##  2 # 91/2, Dr. A N Krishna Rao Road, V V Puram, Bengaluru, Karnataka 560…     1
##  3 #03-51, 934 Yishun Central 1, Singapore 760934                             1
##  4 #176, LAWSONSBAY COLNY, Visakhapatnam, Andhra Pradesh 530017, India        1
##  5 #21, Street 21 Sangkat Tonle Bassac, Phnom Penh 12000, Cambodia            1
##  6 #D6 Rd 42 PA1, Sen Sok, Phnom Penh, Phnom Penh 12000, Cambodia             1
##  7 ⛉ Princes Highway Princes Hwy, Warrnambool VIC 3280, Australia             1
##  8 〒305-0046, １丁目 東 つくば市 茨城県 305-0046, Japan                      1
##  9 01069 Dresden, Germany                                                     2
## 10 02 Nguyễn Đình Chiểu, Vĩnh Thọ, Tp. Nha Trang, Vĩnh Thọ 650000, Vietn…     6
## # ... with 3,049 more rows
…
