…
load the package

library(dplyr)

We can now use the tbl_df() function to create an easy to read dataframe table (tbl_df()) using our ritonavir dataset that lists columns as characters.

ritonavirtbl <- tbl_df(ritonavir)

This creates an easy to read table dataframe.

If we print the frame we will now have readable content.

ritonavirtbl

## # A tibble: 804 x 20
##    row.no publication.numb… kind.code title   priority.docume… priority.country
##     <int> <chr>             <chr>     <chr>   <chr>            <chr>           
##  1      1 AU2007202956      B2        Polymo… AU19990050037    Australia       
##  2      2 CA2425495         A1        ANTI-R… CA2425495        Canada          
##  3      3 CN101440091       A         Ritona… CN20081072486    China           
##  4      4 CN101613325       A         Proces… CN20081031608    China           
##  5      5 CN1247554         C         Proces… CN20031121091    China           
##  6      6 DE10131036        A1        Medici… DE20011031036    Germany         
##  7      7 DE10145361        A1        Steril… DE20011045361    Germany         
##  8      8 DE102005012681    A1        New 1,… DE200510012681   Germany         
##  9      9 DE102007030695    A1        Co-cry… DE200710063623   Germany         
## 10     10 EP0490667         B1        HIV pr… JP19900409673    Japan           
## # ... with 794 more rows, and 14 more variables: earliest.priority.date <chr>,
## #   earliest.priority.year <int>, application.date <chr>,
## #   publication.date <chr>, publication.year <int>, applicant <chr>,
## #   inventors <chr>, ipc.classes <chr>, family.members <chr>,
## #   family.size <int>, family.size.1 <int>, wo.in.family <chr>,
## #   grant.or.application.type.families <chr>, granted.patent <chr>
…
