…
Use the guess_max argument to increase the number of rows that are read to guess the column type. The default is 1000 and here we reset it to 2000. In the case of our example dataset this didn’t work because the problems appeared lower down but it often will. You can add an n_max value (shown below as NULL) where you know the maximum number of rows.

library(readxl)
taxonomy <- read_excel("/Users/pauloldham17inch/Desktop/open_source_master/asean/data-taxonomy/taxonomy_final.xlsx", 
    guess_max = min(2000, n_max = NULL))

An alternative to this approach is simply to set min as the maximum number of rows. The issue here is that you would of course need to already have opened the spreadsheet to identify the number of rows, but there is no reason not to simply guess large.

library(readxl)
taxonomy <- read_excel("/Users/pauloldham17inch/Desktop/taxonomy_final.xlsx", 
    guess_max = min(8400, n_max = NULL))
taxonomy

## # A tibble: 8,400 x 50
##            scientificname       type genusorabove specificepithet parsed
##                     <chr>      <chr>        <chr>           <chr>  <lgl>
##  1          abramis brama SCIENTIFIC      Abramis           brama   TRUE
##  2 acanthamoeba polyphaga SCIENTIFIC Acanthamoeba       polyphaga   TRUE
##  3  acaudina molpadioides SCIENTIFIC     Acaudina    molpadioides   TRUE
##  4    acipenser dabryanus SCIENTIFIC    Acipenser       dabryanus   TRUE
##  5   acipenser fulvescens SCIENTIFIC    Acipenser      fulvescens   TRUE
##  6      acipenser mikadoi SCIENTIFIC    Acipenser         mikadoi   TRUE
##  7   acipenser oxyrinchus SCIENTIFIC    Acipenser      oxyrinchus   TRUE
##  8     acipenser ruthenus SCIENTIFIC    Acipenser        ruthenus   TRUE
##  9    acipenser schrencki SCIENTIFIC    Acipenser       schrencki   TRUE
## 10   acrocalanus gracilis SCIENTIFIC  Acrocalanus        gracilis   TRUE
## # ... with 8,390 more rows, and 45 more variables: authorsparsed <lgl>,
## #   canonicalname <chr>, canonicalnamewithmarker <chr>,
## #   canonicalnamecomplete <chr>, rankmarker <chr>, gbif_id <chr>,
## #   db <chr>, match <chr>, multiple_matches <lgl>, pattern_match <lgl>,
## #   uri <chr>, kingdom <chr>, phylum <chr>, class <chr>, order <chr>,
## #   family <chr>, genus <chr>, species <chr>, kingdom_id <chr>,
## #   phylum_id <chr>, class_id <chr>, order_id <chr>, family_id <chr>,
## #   genus_id <chr>, species_id <chr>, query <chr>, scientificname1 <chr>,
## #   required_fields_check <dbl>, environment_aphia_worms <chr>,
…
The documentation for read_excel (?read_excel) sets out quite a few other options. For example we could specify the format of some columns and leave the function to guess the others. That would look like this.

df <- read_excel("/Users/pauloldham17inch/Desktop/open_source_master/blog/content/post/df.xlsx", 
    col_names = TRUE, col_types = c("guess", "guess", "logical", "guess"))

3. Convert all columns to a single type

For a dataset with a lot of columns trying to work out the column types or writing guess, logical, character can rapidly become painful. Depending on your needs it may be easier to simply use the col_types = "text" for all columns and change them where needed later using as.character(), as.logical(), as.numeric() or as.Date().

library(readxl)
taxonomy <- read_excel("/Users/pauloldham17inch/Desktop/taxonomy_final.xlsx", 
    col_types = "text")
taxonomy

## # A tibble: 8,400 x 50
##            scientificname       type genusorabove specificepithet parsed
##                     <chr>      <chr>        <chr>           <chr>  <chr>
##  1          abramis brama SCIENTIFIC      Abramis           brama   TRUE
##  2 acanthamoeba polyphaga SCIENTIFIC Acanthamoeba       polyphaga   TRUE
##  3  acaudina molpadioides SCIENTIFIC     Acaudina    molpadioides   TRUE
##  4    acipenser dabryanus SCIENTIFIC    Acipenser       dabryanus   TRUE
##  5   acipenser fulvescens SCIENTIFIC    Acipenser      fulvescens   TRUE
##  6      acipenser mikadoi SCIENTIFIC    Acipenser         mikadoi   TRUE
##  7   acipenser oxyrinchus SCIENTIFIC    Acipenser      oxyrinchus   TRUE
##  8     acipenser ruthenus SCIENTIFIC    Acipenser        ruthenus   TRUE
##  9    acipenser schrencki SCIENTIFIC    Acipenser       schrencki   TRUE
## 10   acrocalanus gracilis SCIENTIFIC  Acrocalanus        gracilis   TRUE
## # ... with 8,390 more rows, and 45 more variables: authorsparsed <chr>,
## #   canonicalname <chr>, canonicalnamewithmarker <chr>,
## #   canonicalnamecomplete <chr>, rankmarker <chr>, gbif_id <chr>,
## #   db <chr>, match <chr>, multiple_matches <chr>, pattern_match <chr>,
## #   uri <chr>, kingdom <chr>, phylum <chr>, class <chr>, order <chr>,
## #   family <chr>, genus <chr>, species <chr>, kingdom_id <chr>,
## #   phylum_id <chr>, class_id <chr>, order_id <chr>, family_id <chr>,
## #   genus_id <chr>, species_id <chr>, query <chr>, scientificname1 <chr>,
## #   required_fields_check <chr>, environment_aphia_worms <chr>,
…
