…
First we will add a column with a numeric value for each publication number in the dataset using mutate. mutate takes an argument applied to the values of one or more columns and adds a new column based on that argument. Here, as in Part 1 we simply add a new column called n that uses sum() to award each publication number the value of 1. We now have a numeric count column n from our character vectors.

pizza <- mutate(pizza, n = sum(publication_number = 1))

Next we will rename the columns to make life easier using rename(). The code has been indented to make it easier to read. To run this code, select the code and press Run in R or press command and enter.

pizza <- rename(pizza, 
                pubcountry = publication_country_name,
                pubcode = publication_country_code, 
                pubyear = publication_year
                )
pizza

## # A tibble: 9,996 x 32
##    applicants_cleaned    applicants_clean… applicants_orga… applicants_original
##    <chr>                 <chr>             <chr>            <chr>              
##  1 <NA>                  People            <NA>             <NA>               
##  2 Ventimeglia Jamie Jo… People            <NA>             Ventimeglia Jamie …
##  3 Cordova Robert; Mart… People            <NA>             Cordova Robert;Mar…
##  4 Lazarillo De Tormes … Corporate         Lazarillo De To… LAZARILLO DE TORME…
##  5 <NA>                  People            <NA>             <NA>               
##  6 Depoortere, Thomas    People            <NA>             DEPOORTERE, Thomas 
##  7 Frisco Findus Ag      Corporate         Frisco Findus Ag FRISCO-FINDUS AG   
##  8 Bicycle Tools Incorp… Corporate         Bicycle Tools I… Bicycle Tools Inco…
##  9 Castiglioni, Carlo    People            <NA>             CASTIGLIONI, CARLO 
## 10 <NA>                  People            <NA>             <NA>               
## # ... with 9,986 more rows, and 28 more variables: inventors_cleaned <chr>,
## #   inventors_original <chr>, ipc_class <chr>, ipc_codes <chr>,
## #   ipc_names <chr>, ipc_original <chr>, ipc_subclass_codes <chr>,
## #   ipc_subclass_detail <chr>, ipc_subclass_names <chr>,
## #   priority_country_code <chr>, priority_country_code_names <chr>,
## #   priority_data_original <chr>, priority_date <chr>, pubcode <chr>,
## #   pubcountry <chr>, publication_date <chr>, publication_date_original <chr>,
## #   publication_day <int>, publication_month <int>, publication_number <chr>,
## #   publication_number_espacenet_links <chr>, pubyear <int>,
…
pt <- count(p1, pubyear, wt = n)

If we inspect pt we will see that we now have totals for each year. We might want to add a rank or percentage column to that for later use. There are a variety of ways of going about this. However, staying with dplyr, behind the scenes count function has grouped the data for us (see ?count). To understand this use str(pt) in the console to view the data. This will reveal that we have a grouped data frame with attributes. To go further we will ungroup the table first. [Note that ungrouping is not normally necessary but is used here because of an unexpected problem calculating a percentage on a grouped table using sum(n) in dplyr].

pt <- ungroup(pt)

As with filter we can pass multiple arguments to mutate. To demonstrate this we will add a column with a percentage score, then use ntile to split the data into 3 groups and then calculate the percent rank using percent_rank(nn)

pt <- mutate(pt, group = ntile(nn, 3),
             percent = nn / sum(nn) * 100, 
             rank = percent_rank(nn))
pt

## # A tibble: 43 x 5
##    pubyear    nn group percent   rank
##      <int> <dbl> <int>   <dbl>  <dbl>
##  1    1970    2.     1  0.0223 0.    
##  2    1971    6.     1  0.0668 0.0238
##  3    1972   14.     1  0.156  0.119 
##  4    1973    9.     1  0.100  0.0714
##  5    1974    7.     1  0.0780 0.0476
##  6    1975   11.     1  0.123  0.0952
##  7    1976   27.     1  0.301  0.190 
##  8    1977   24.     1  0.267  0.143 
##  9    1978   30.     1  0.334  0.214 
## 10    1979   26.     1  0.290  0.167 
## # ... with 33 more rows
…
Note that we have added the function arrange and given it the value of n. Arrange will sort a table on a column in ascending order by default and descending order using desc inside the function as in this case. Use View(pc) to take a look. To reverse the order try the code below.

pc <- arrange(pc, nn)

This will arrange the pc data by the value of n in the default ascending order.

Creating a Publication Country by Year Table

For the publication country by year we do the same but retain all the columns.

pcy <- count(p1, pubcountry, pubcode, pubyear, wt = n) %>% ungroup()
pcy

## # A tibble: 296 x 4
##    pubcountry pubcode pubyear    nn
##    <chr>      <chr>     <int> <dbl>
##  1 Canada     CA         1971    2.
##  2 Canada     CA         1972    4.
##  3 Canada     CA         1974    1.
##  4 Canada     CA         1975    1.
##  5 Canada     CA         1976    1.
##  6 Canada     CA         1977    1.
##  7 Canada     CA         1978    4.
##  8 Canada     CA         1979    8.
##  9 Canada     CA         1980   11.
## 10 Canada     CA         1981   14.
## # ... with 286 more rows
…
