Identifying the earliest patent priority number - Paul Oldhams Analytics Blog
…
group the data onto an id such as the application or publication number

identify the earliest publication number accordingly. Indeed, we may wish to identify the filing order in order to identify the office of first, second, third etc. filing.

A solution in R

We will work with a dataset from Clarivate Analytics Derwent Innovation created for the asean marine project. The dataset consists of 42,889 publication numbers, application numbers and the priority number field for patent documents published in Vietnam.

load("vietnam.rda")

library(tidyverse)
vietnam %>% arrange(application_numbers)

## # A tibble: 42,889 x 4
##    publication_number application_numbers
##                 <chr>               <chr>
##  1          AT508839T       AT2008782716T
##  2         AT509650B1          AT2011234A
##  3         AT509650A2          AT2011234A
##  4         AT509650A3          AT2011234A
##  5        BE1017205A6          BE2007534A
##  6          CA146331S           CA146331F
##  7         CH702889A2          CH2011372A
##  8         CH702889B1          CH2011372A
##  9         CH707450A2         CH20132070A
## 10         CH707450B1         CH20132070A
## # ... with 42,879 more rows, and 2 more variables:
## #   priority_numbers_long <chr>, inpadoc_first_family_member_number <chr>
…
Using a grouping variable

As mentioned above, a patent document may be published numerous times and this can lead to the duplication of application numbers and the corresponding priority numbers and dates for those records. We can see this in our original dataset below.

vietnam %>%
  select(publication_number, application_numbers) %>% 
  arrange(publication_number)

## # A tibble: 42,889 x 2
##    publication_number application_numbers
##                 <chr>               <chr>
##  1          AT508839T       AT2008782716T
##  2         AT509650A2          AT2011234A
##  3         AT509650A3          AT2011234A
##  4         AT509650B1          AT2011234A
##  5        BE1017205A6          BE2007534A
##  6          CA146331S           CA146331F
##  7         CH702889A2          CH2011372A
##  8         CH702889B1          CH2011372A
##  9         CH707450A2         CH20132070A
## 10         CH707450B1         CH20132070A
## # ... with 42,879 more rows
…
The ranking is handled by the rank function in R. The ties.method argument is important here. The default ties.method is “average” as the calculation of the mean is a very common operation in R. However, that is not what we want. Instead we choose the “first” method.

To add the column we enclose the call to rank() inside the dplyr mutate() function (which adds new values) and give it the name filing_order.

vietpr <- vietpr %>% 
  dplyr::group_by(application_numbers) %>%
    dplyr::mutate(filing_order = rank(priority_date, ties.method = "first"))

When we take a look at this data (arranged by priority number) we will see that it has ranked the data correctly by date.

vietpr %>% 
  arrange(application_numbers) %>% 
  select(application_numbers, priority_number, priority_date, filing_order)

## # A tibble: 101,811 x 4
## # Groups:   application_numbers [37,739]
##    application_numbers priority_number priority_date filing_order
##                  <chr>           <chr>        <date>        <int>
##  1       AT2008782716T     VN20071571A    2007-08-01            1
##  2       AT2008782716T     VN20071748A    2007-08-29            2
##  3       AT2008782716T     VN20072041A    2007-10-05            3
##  4       AT2008782716T      WO2008VN2A    2008-07-24            4
##  5          AT2011234A CN200920219642U    2009-10-30            1
##  6          AT2011234A CN201010125105A    2010-03-16            2
##  7          AT2011234A DE102010028298A    2010-04-28            3
##  8          AT2011234A       HU201129A    2011-02-03            4
##  9          AT2011234A   PH2012501400A    2012-07-10            6
## 10          AT2011234A     VN20112612A    2011-03-10            5
## # ... with 101,801 more rows
…
We now see that the min order shows the tie on the priority date. In practice, a review of the record on espacenet reveals that as expected EP2007110219A is the first priority and that the dates for the subsequent priority_numbers are application dates linked to that priority number. This makes sense because by definition the priority_date is the date of application (e.g. in a specific jurisdiction). The Paris Convention priority (first filing) is the earliest dated document in the set. We will come back to this is a separate post on patent families.

Reducing the data to the first filing

It is now a straightforward matter to reduce the dataset to the first filing by using filter.

viet_first <- vietpr %>% 
  filter(filing_order == 1) %>% 
  arrange(priority_date)
viet_first[5:8]

## # A tibble: 37,739 x 4
##      priority_numbers_long priority_number priority_date filing_order
##                      <chr>           <chr>        <date>        <int>
##  1     VN19801A 1980-04-14        VN19801A    1980-04-14            1
##  2   SU3329009A 1981-07-29      SU3329009A    1981-07-29            1
##  3    VN198213A 1982-01-20       VN198213A    1982-01-20            1
##  4   SU3401066A 1982-02-22      SU3401066A    1982-02-22            1
##  5 BG198255846A 1982-03-18    BG198255846A    1982-03-18            1
##  6    VN198210A 1982-04-26       VN198210A    1982-04-26            1
##  7    VN198343A 1983-05-18       VN198343A    1983-05-18            1
##  8    VN198351A 1983-09-01       VN198351A    1983-09-01            1
##  9    VN198354A 1983-11-02       VN198354A    1983-11-02            1
## 10    VN198357A 1983-12-19       VN198357A    1983-12-19            1
## # ... with 37,729 more rows
…
