Importing Excel Data in R - A Quick Update - Open Source Patent Analytics
…
## Warning in read_fun(path = path, sheet = sheet, limits = limits, shim
## = shim, : Expecting logical in AH8401 / R8401C34: got 'Uroteuthis
## (Photololigo) vossi'

## Warning in read_fun(path = path, sheet = sheet, limits = limits, shim =
## shim, : Expecting logical in AI8401 / R8401C35: got 'uroteuthis vossi'

## Warning in read_fun(path = path, sheet = sheet, limits = limits, shim =
## shim, : Expecting logical in AJ8401 / R8401C36: got '2290311'

taxonomy

## # A tibble: 8,400 x 60
##            scientificname       type genusorabove specificepithet parsed
##                     <chr>      <chr>        <chr>           <chr>  <lgl>
##  1          abramis brama SCIENTIFIC      Abramis           brama   TRUE
##  2 acanthamoeba polyphaga SCIENTIFIC Acanthamoeba       polyphaga   TRUE
##  3  acaudina molpadioides SCIENTIFIC     Acaudina    molpadioides   TRUE
##  4    acipenser dabryanus SCIENTIFIC    Acipenser       dabryanus   TRUE
##  5   acipenser fulvescens SCIENTIFIC    Acipenser      fulvescens   TRUE
##  6      acipenser mikadoi SCIENTIFIC    Acipenser         mikadoi   TRUE
##  7   acipenser oxyrinchus SCIENTIFIC    Acipenser      oxyrinchus   TRUE
##  8     acipenser ruthenus SCIENTIFIC    Acipenser        ruthenus   TRUE
##  9    acipenser schrencki SCIENTIFIC    Acipenser       schrencki   TRUE
## 10   acrocalanus gracilis SCIENTIFIC  Acrocalanus        gracilis   TRUE
## # ... with 8,390 more rows, and 55 more variables: authorsparsed <lgl>,
## #   canonicalname <chr>, canonicalnamewithmarker <chr>,
## #   canonicalnamecomplete <chr>, rankmarker <chr>, gbif_id <chr>,
## #   db <chr>, match <chr>, multiple_matches <lgl>, pattern_match <lgl>,
## #   uri <chr>, kingdom <chr>, phylum <chr>, class <chr>, order <chr>,
## #   family <chr>, genus <chr>, species <chr>, kingdom_id <chr>,
## #   phylum_id <chr>, class_id <chr>, order_id <chr>, family_id <chr>,
## #   genus_id <chr>, species_id <chr>, query <chr>, rowno <lgl>,
## #   records <lgl>, asean_species <lgl>, scientificname_edited <lgl>,
…
An alternative to this approach is simply to set min as the maximum number of rows.

library(readxl)
taxonomy <- read_excel("/Users/pauloldham17inch/Desktop/taxonomy_final.xlsx", guess_max = min(8400, n_max = NULL))
taxonomy

## # A tibble: 8,400 x 50
##            scientificname       type genusorabove specificepithet parsed
##                     <chr>      <chr>        <chr>           <chr>  <lgl>
##  1          abramis brama SCIENTIFIC      Abramis           brama   TRUE
##  2 acanthamoeba polyphaga SCIENTIFIC Acanthamoeba       polyphaga   TRUE
##  3  acaudina molpadioides SCIENTIFIC     Acaudina    molpadioides   TRUE
##  4    acipenser dabryanus SCIENTIFIC    Acipenser       dabryanus   TRUE
##  5   acipenser fulvescens SCIENTIFIC    Acipenser      fulvescens   TRUE
##  6      acipenser mikadoi SCIENTIFIC    Acipenser         mikadoi   TRUE
##  7   acipenser oxyrinchus SCIENTIFIC    Acipenser      oxyrinchus   TRUE
##  8     acipenser ruthenus SCIENTIFIC    Acipenser        ruthenus   TRUE
##  9    acipenser schrencki SCIENTIFIC    Acipenser       schrencki   TRUE
## 10   acrocalanus gracilis SCIENTIFIC  Acrocalanus        gracilis   TRUE
## # ... with 8,390 more rows, and 45 more variables: authorsparsed <lgl>,
## #   canonicalname <chr>, canonicalnamewithmarker <chr>,
## #   canonicalnamecomplete <chr>, rankmarker <chr>, gbif_id <chr>,
## #   db <chr>, match <chr>, multiple_matches <lgl>, pattern_match <lgl>,
## #   uri <chr>, kingdom <chr>, phylum <chr>, class <chr>, order <chr>,
## #   family <chr>, genus <chr>, species <chr>, kingdom_id <chr>,
## #   phylum_id <chr>, class_id <chr>, order_id <chr>, family_id <chr>,
## #   genus_id <chr>, species_id <chr>, query <chr>, scientificname1 <chr>,
## #   required_fields_check <dbl>, environment_aphia_worms <chr>,
…
df <- read_excel("/Users/pauloldham17inch/Desktop/open_source_master/blog/content/post/df.xlsx", col_names = TRUE, col_types = c("numeric", "text", "logical", "text"))

The documentation for read_excel sets out quite a few other options. For example we could specify the format of some columns and leave the function to guess the others. That would look like this.

df <- read_excel("/Users/pauloldham17inch/Desktop/open_source_master/blog/content/post/df.xlsx", col_names = TRUE, col_types = c("guess", "guess", "logical", "guess"))

2. Convert all columns to a single type

For a dataset with a lot of columns trying to work out the column types or writing guess, logical, character can rapidly become painful. Depending on your needs it is often easier to simply use the col_types = "text" for all columns and change them where needed later using as.character(), as.logical(), as.numeric() or as.Date().

library(readxl)
taxonomy <- read_excel("/Users/pauloldham17inch/Desktop/taxonomy_final.xlsx", col_types = "text")
taxonomy

## # A tibble: 8,400 x 50
##            scientificname       type genusorabove specificepithet parsed
##                     <chr>      <chr>        <chr>           <chr>  <chr>
##  1          abramis brama SCIENTIFIC      Abramis           brama   TRUE
##  2 acanthamoeba polyphaga SCIENTIFIC Acanthamoeba       polyphaga   TRUE
##  3  acaudina molpadioides SCIENTIFIC     Acaudina    molpadioides   TRUE
##  4    acipenser dabryanus SCIENTIFIC    Acipenser       dabryanus   TRUE
##  5   acipenser fulvescens SCIENTIFIC    Acipenser      fulvescens   TRUE
##  6      acipenser mikadoi SCIENTIFIC    Acipenser         mikadoi   TRUE
##  7   acipenser oxyrinchus SCIENTIFIC    Acipenser      oxyrinchus   TRUE
##  8     acipenser ruthenus SCIENTIFIC    Acipenser        ruthenus   TRUE
##  9    acipenser schrencki SCIENTIFIC    Acipenser       schrencki   TRUE
## 10   acrocalanus gracilis SCIENTIFIC  Acrocalanus        gracilis   TRUE
## # ... with 8,390 more rows, and 45 more variables: authorsparsed <chr>,
## #   canonicalname <chr>, canonicalnamewithmarker <chr>,
## #   canonicalnamecomplete <chr>, rankmarker <chr>, gbif_id <chr>,
## #   db <chr>, match <chr>, multiple_matches <chr>, pattern_match <chr>,
## #   uri <chr>, kingdom <chr>, phylum <chr>, class <chr>, order <chr>,
## #   family <chr>, genus <chr>, species <chr>, kingdom_id <chr>,
## #   phylum_id <chr>, class_id <chr>, order_id <chr>, family_id <chr>,
## #   genus_id <chr>, species_id <chr>, query <chr>, scientificname1 <chr>,
## #   required_fields_check <chr>, environment_aphia_worms <chr>,
…
